Running: /media/brais/HDD/Xilinx/14.7/ISE_DS/ISE/bin/lin64/unwrapped/fuse -intstyle ise -incremental -o /home/brais/Escritorio/color_symphony_cube/hw_vhdl/SymphonyCube/NeoFSM_TB_isim_beh.exe -prj /home/brais/Escritorio/color_symphony_cube/hw_vhdl/SymphonyCube/NeoFSM_TB_beh.prj work.NeoFSM_TB 
ISim P.20131013 (signature 0xfbc00daa)
Number of CPUs detected in this system: 2
Turning on mult-threading, number of parallel sub-compilation jobs: 4 
Determining compilation order of HDL files
Parsing VHDL file "/home/brais/Escritorio/color_symphony_cube/hw_vhdl/SymphonyCube/NeoFSM.vhd" into library work
Parsing VHDL file "/home/brais/Escritorio/color_symphony_cube/hw_vhdl/SymphonyCube/NeoFSM_TB.vhd" into library work
Starting static elaboration
Completed static elaboration
Fuse Memory Usage: 85036 KB
Fuse CPU Usage: 2210 ms
Compiling package standard
Compiling package std_logic_1164
Compiling package numeric_std
Compiling architecture behavioral of entity NeoFSM [neofsm_default]
Compiling architecture behavior of entity neofsm_tb
Time Resolution for simulation is 1ps.
Compiled 6 VHDL Units
Built simulation executable /home/brais/Escritorio/color_symphony_cube/hw_vhdl/SymphonyCube/NeoFSM_TB_isim_beh.exe
Fuse Memory Usage: 394496 KB
Fuse CPU Usage: 2340 ms
GCC CPU Usage: 500 ms
